<?php

use Illuminate\Support\Facades\DB;
use Illuminate\Database\Migrations\Migration;
use Illuminate\Database\Schema\Blueprint;
use Illuminate\Support\Facades\Schema;

return new class extends Migration
{
    /**
     * Run the migrations.
     *
     * @return void
     */
    public function up()
    {
        DB::statement('SET FOREIGN_KEY_CHECKS = 0');

        /*
        if (Schema::hasTable('#CLASS_TABLE#')) {
            Schema::dropIfExists('#CLASS_TABLE#');
        }
        */

        // HandleModelTable::up();

        DB::statement('SET FOREIGN_KEY_CHECKS = 1');
    }

    /**
     * Reverse the migrations.
     *
     * @return void
     */
    public function down()
    {
        // HandleModelTable::down();
    }
};
